{
    "test": {
        "apiPrefix": "http://wp8m3he1wt.s3-website-ap-southeast-2.amazonaws.com",
        "entryPiont": "/api/products/1",
        "category": "Air Conditioners"
    },
    "dev": {
        "apiPrefix": "https://kogan-test.firebaseio.com/",
        "entryPiont": "api1.json",
        "category": "Air Conditioners"
    }
}